"LightmappedPBR"
{
  "$basetexture" "pbrtest\redbrick01_diff"
  "$normalmap" "pbrtest\redbrick01_bump"
  "$ao" "pbrtest\redbrick01_ao"
  "$roughness" "pbrtest\redbrick01_rough"
  "$envmap" "env_cubemap"
  "$PARALLAXDEPTH" "0.01"
  "$ParallaxScaling" "0.4"
  "$PARALLAXSTEP" "1"



}